{
    "persons": [{
        "identifier": 0,
        "fullName":"Artur"
    },
    {
        "identifier": 1,
        "fullName":"Bogdan"
    },
    {
        "identifier": 2,
        "fullName":"Vlad"
    }]
}
